train467@cori09:~/sw/build> spack install xerces-c
[+] /global/common/sw/cray/cnl7/haswell/libiconv/1.16/intel/19.0.3.199/vr7hfhz
[+] /global/common/sw/cray/cnl7/haswell/libiconv/1.16/intel/19.0.3.199/vr7hfhz
==> 41416: Installing xerces-c
==> Fetching https://archive.apache.org/dist/xerces/c/3/sources/xerces-c-3.2.2.tar.bz2
################################################################################################################################################ 100.0%
==> Staging archive: /global/cscratch1/sd/train467/sw/spackbuild/spack-stage-xerces-c-3.2.2-ggdbuk52jm72rebq67s3ro2vxzaeozg4/xerces-c-3.2.2.tar.bz2
==> Created stage in /global/cscratch1/sd/train467/sw/spackbuild/spack-stage-xerces-c-3.2.2-ggdbuk52jm72rebq67s3ro2vxzaeozg4
==> No patches needed for xerces-c
==> 41416: xerces-c: Building xerces-c [AutotoolsPackage]
==> 41416: xerces-c: Executing phase: 'autoreconf'
==> 41416: xerces-c: Executing phase: 'configure'
==> 41416: xerces-c: Executing phase: 'build'
==> 41416: xerces-c: Executing phase: 'install'
==> 41416: xerces-c: Successfully installed xerces-c
  Fetch: 2.30s.  Build: 2m 34.05s.  Total: 2m 36.35s.
[+] /global/homes/t/train467/sw/opt/spack/cray-cnl7-haswell/intel-19.0.3.199/xerces-c-3.2.2-ggdbuk5



